{
  "version": 3,
  "cmakeMinimumRequired": {
    "major": 3,
    "minor": 22,
    "patch": 0
  },
  "configurePresets": [
    {
      "name": "base",
      "hidden": true,
      "generator": "Visual Studio 17 2022",
      "binaryDir": "${sourceDir}/out/${presetName}/",
      "architecture": "x64",
      "cacheVariables": {
        "CMAKE_BUILD_TYPE": "Debug"
      }
    },
    {
      "name": "console",
      "inherits": "base",
      "displayName": "Console",
      "cacheVariables": {
        "USE_JADE": "OFF"
      }
    },
    {
      "name": "20.0.02-ansi",
      "inherits": "base",
      "displayName": "JADE 2020 SP1 (ANSI)",
      "cacheVariables": {
        "JADE_VERSION": "20.0.02"
      }
    },
    {
      "name": "20.0.02-unicode",
      "inherits": "20.0.02-ansi",
      "displayName": "JADE 2020 SP1 (Unicode)",
      "cacheVariables": {
        "UNICODE": "ON"
      }
    },
    {
      "name": "22.0.03-ansi",
      "inherits": "base",
      "displayName": "JADE 2022 SP2 (ANSI)",
      "cacheVariables": {
        "JADE_VERSION": "22.0.03"
      }
    },
    {
      "name": "22.0.03-unicode",
      "inherits": "22.0.03-ansi",
      "displayName": "JADE 2022 SP2 (Unicode)",
      "cacheVariables": {
        "UNICODE": "ON"
      }
    },
    {
      "name": "22.0.04-ansi",
      "inherits": "base",
      "displayName": "JADE 2022 SP3 (ANSI)",
      "cacheVariables": {
        "JADE_VERSION": "22.0.04"
      }
    },
    {
      "name": "22.0.04-unicode",
      "inherits": "22.0.04-ansi",
      "displayName": "JADE 2022 SP3 (Unicode)",
      "cacheVariables": {
        "UNICODE": "ON"
      }
    }
  ]
}